Stat 331/531 Statistical Computing with R - 3 Data Cleaning and Manipulation
…
relocate lets you rearrange columns (by Allison Horst)

# move numeric variables to the front
relocate(.data = starwars, 
         where(is.numeric)
         )

# A tibble: 87 × 11
   height  mass birth_year name     hair_color skin_color eye_color sex   gender
    <int> <dbl>      <dbl> <chr>    <chr>      <chr>      <chr>     <chr> <chr> 
 1    172    77       19   Luke Sk… blond      fair       blue      male  mascu…
 2    167    75      112   C-3PO    <NA>       gold       yellow    none  mascu…
 3     96    32       33   R2-D2    <NA>       white, bl… red       none  mascu…
 4    202   136       41.9 Darth V… none       white      yellow    male  mascu…
 5    150    49       19   Leia Or… brown      light      brown     fema… femin…
 6    178   120       52   Owen La… brown, gr… light      blue      male  mascu…
 7    165    75       47   Beru Wh… brown      light      blue      fema… femin…
 8     97    32       NA   R5-D4    <NA>       white, red red       none  mascu…
 9    183    84       24   Biggs D… black      light      brown     male  mascu…
10    182    77       57   Obi-Wan… auburn, w… fair       blue-gray male  mascu…
# ℹ 77 more rows
# ℹ 2 more variables: homeworld <chr>, species <chr>
…
compute summary values for each smaller data set

put my summarized data back together into a single data set

This is known as the split-apply-combine “Group by: Split-Apply-Combine” (2022) or sometimes, map-reduce (Dean and Ghemawat 2008) strategy (though map-reduce is usually on specifically large data sets and performed in parallel).

In tidy parlance, group_by() is the verb that accomplishes the first task. summarize() accomplishes the second task and implicitly accomplishes the third as well.

Let’s see how things change when we calculate the average height of star wars characters by their species.

starwars |> 
  group_by(species) |> 
  summarize(height = mean(height, na.rm = T))

# A tibble: 38 × 2
   species   height
   <chr>      <dbl>
 1 Aleena       79 
 2 Besalisk    198 
 3 Cerean      198 
 4 Chagrian    196 
 5 Clawdite    168 
 6 Droid       131.
 7 Dug         112 
 8 Ewok         88 
 9 Geonosian   183 
10 Gungan      209.
# ℹ 28 more rows
…
