Stat 331/531 Statistical Computing with R - 8 Functional Programming
…
[[5]]
[[5]]$name
[1] "Areo Hotah"

[[5]]$gender
[1] "Male"

[[5]]$born
[1] "In 257 AC or before, at Norvos"

What if we want this to be a data frame instead? We can use map_dfr() to get a data frame that is formed by row-binding each element in the list.

purrr::map_dfr(got_chars, `[`, c("name", "gender", "born")) 

# A tibble: 30 × 3
   name               gender born                                    
   <chr>              <chr>  <chr>                                   
 1 Theon Greyjoy      Male   "In 278 AC or 279 AC, at Pyke"          
 2 Tyrion Lannister   Male   "In 273 AC, at Casterly Rock"           
 3 Victarion Greyjoy  Male   "In 268 AC or before, at Pyke"          
 4 Will               Male   ""                                      
 5 Areo Hotah         Male   "In 257 AC or before, at Norvos"        
 6 Chett              Male   "At Hag's Mire"                         
 7 Cressen            Male   "In 219 AC or 220 AC"                   
 8 Arianne Martell    Female "In 276 AC, at Sunspear"                
 9 Daenerys Targaryen Female "In 284 AC, at Dragonstone"             
10 Davos Seaworth     Male   "In 260 AC or before, at King's Landing"
# … with 20 more rows

# Equivalent to
purrr::map(got_chars, `[`, c("name", "gender", "born")) |>
  dplyr::bind_rows()

# A tibble: 30 × 3
   name               gender born                                    
   <chr>              <chr>  <chr>                                   
 1 Theon Greyjoy      Male   "In 278 AC or 279 AC, at Pyke"          
 2 Tyrion Lannister   Male   "In 273 AC, at Casterly Rock"           
 3 Victarion Greyjoy  Male   "In 268 AC or before, at Pyke"          
 4 Will               Male   ""                                      
 5 Areo Hotah         Male   "In 257 AC or before, at Norvos"        
 6 Chett              Male   "At Hag's Mire"                         
 7 Cressen            Male   "In 219 AC or 220 AC"                   
 8 Arianne Martell    Female "In 276 AC, at Sunspear"                
 9 Daenerys Targaryen Female "In 284 AC, at Dragonstone"             
10 Davos Seaworth     Male   "In 260 AC or before, at King's Landing"
# … with 20 more rows
…
  outlier_sample <- c(NULL, sample(tmp$x, n_outliers))
  
  # Create outliers
  tmp |> 
    mutate(
      is_outlier = x %in% outlier_sample,
      y = y + is_outlier * sample(c(-1, 1), n(), replace = T) * runif(n(), 5, 10)
    )
}
data_sim()

# A tibble: 201 × 3
       x      y is_outlier
   <dbl>  <dbl> <lgl>     
 1 -10   -10.8  FALSE     
 2  -9.9 -11.4  FALSE     
 3  -9.8  -8.86 FALSE     
 4  -9.7  -9.52 FALSE     
 5  -9.6  -9.36 FALSE     
 6  -9.5  -7.88 FALSE     
 7  -9.4  -9.29 FALSE     
 8  -9.3  -9.43 FALSE     
 9  -9.2 -11.1  FALSE     
10  -9.1  -9.38 FALSE     
# … with 191 more rows
…
Determine if each Game of Thrones character has more titles than aliases. Start with this code:

library(repurrrsive)
library(tidyverse)

data(got_chars)
got_names <- tibble(name = purrr::map_chr(got_chars, "name"),
                    titles = purrr::map(got_chars, "titles"),
                    aliases = purrr::map(got_chars, "aliases"))

got_names |>
  mutate(more_titles = map2_lgl(titles, aliases, ~length(.x) > length(.y)))

# A tibble: 30 × 4
   name               titles    aliases    more_titles
   <chr>              <list>    <list>     <lgl>      
 1 Theon Greyjoy      <chr [2]> <chr [4]>  FALSE      
 2 Tyrion Lannister   <chr [2]> <chr [11]> FALSE      
 3 Victarion Greyjoy  <chr [2]> <chr [1]>  TRUE       
 4 Will               <chr [1]> <chr [1]>  FALSE      
 5 Areo Hotah         <chr [1]> <chr [1]>  FALSE      
 6 Chett              <chr [1]> <chr [1]>  FALSE      
 7 Cressen            <chr [1]> <chr [1]>  FALSE      
 8 Arianne Martell    <chr [1]> <chr [1]>  FALSE      
 9 Daenerys Targaryen <chr [5]> <chr [11]> FALSE      
10 Davos Seaworth     <chr [4]> <chr [5]>  FALSE      
# … with 20 more rows
…
